%!PS-Adobe-3.0 EPSF-3.0
%%Creator: (MATLAB, The Mathworks, Inc. Version 8.6.0.267246 \(R2015b\). Operating System: Linux)
%%Title: /afs/kth.se/home/s/a/samiula/Documents/PatternRecognition/PattRecClasses/Report/plot2.eps
%%CreationDate: 2016-09-20T15:09:31
%%Pages: (atend)
%%BoundingBox: 0 0 420 315
%%LanguageLevel: 2
%%EndComments
%%BeginProlog
%%BeginResource: procset (Apache XML Graphics Std ProcSet) 1.2 0
%%Version: 1.2 0
%%Copyright: (Copyright 2001-2003,2010 The Apache Software Foundation. License terms: http://www.apache.org/licenses/LICENSE-2.0)
/bd{bind def}bind def
/ld{load def}bd
/GR/grestore ld
/M/moveto ld
/LJ/setlinejoin ld
/C/curveto ld
/f/fill ld
/LW/setlinewidth ld
/GC/setgray ld
/t/show ld
/N/newpath ld
/CT/concat ld
/cp/closepath ld
/S/stroke ld
/L/lineto ld
/CC/setcmykcolor ld
/A/ashow ld
/GS/gsave ld
/RC/setrgbcolor ld
/RM/rmoveto ld
/ML/setmiterlimit ld
/re {4 2 roll M
1 index 0 rlineto
0 exch rlineto
neg 0 rlineto
cp } bd
/_ctm matrix def
/_tm matrix def
/BT { _ctm currentmatrix pop matrix _tm copy pop 0 0 moveto } bd
/ET { _ctm setmatrix } bd
/iTm { _ctm setmatrix _tm concat } bd
/Tm { _tm astore pop iTm 0 0 moveto } bd
/ux 0.0 def
/uy 0.0 def
/F {
  /Tp exch def
  /Tf exch def
  Tf findfont Tp scalefont setfont
  /cf Tf def  /cs Tp def
} bd
/ULS {currentpoint /uy exch def /ux exch def} bd
/ULE {
  /Tcx currentpoint pop def
  gsave
  newpath
  cf findfont cs scalefont dup
  /FontMatrix get 0 get /Ts exch def /FontInfo get dup
  /UnderlinePosition get Ts mul /To exch def
  /UnderlineThickness get Ts mul /Tt exch def
  ux uy To add moveto  Tcx uy To add lineto
  Tt setlinewidth stroke
  grestore
} bd
/OLE {
  /Tcx currentpoint pop def
  gsave
  newpath
  cf findfont cs scalefont dup
  /FontMatrix get 0 get /Ts exch def /FontInfo get dup
  /UnderlinePosition get Ts mul /To exch def
  /UnderlineThickness get Ts mul /Tt exch def
  ux uy To add cs add moveto Tcx uy To add cs add lineto
  Tt setlinewidth stroke
  grestore
} bd
/SOE {
  /Tcx currentpoint pop def
  gsave
  newpath
  cf findfont cs scalefont dup
  /FontMatrix get 0 get /Ts exch def /FontInfo get dup
  /UnderlinePosition get Ts mul /To exch def
  /UnderlineThickness get Ts mul /Tt exch def
  ux uy To add cs 10 mul 26 idiv add moveto Tcx uy To add cs 10 mul 26 idiv add lineto
  Tt setlinewidth stroke
  grestore
} bd
/QT {
/Y22 exch store
/X22 exch store
/Y21 exch store
/X21 exch store
currentpoint
/Y21 load 2 mul add 3 div exch
/X21 load 2 mul add 3 div exch
/X21 load 2 mul /X22 load add 3 div
/Y21 load 2 mul /Y22 load add 3 div
/X22 load /Y22 load curveto
} bd
/SSPD {
dup length /d exch dict def
{
/v exch def
/k exch def
currentpagedevice k known {
/cpdv currentpagedevice k get def
v cpdv ne {
/upd false def
/nullv v type /nulltype eq def
/nullcpdv cpdv type /nulltype eq def
nullv nullcpdv or
{
/upd true def
} {
/sametype v type cpdv type eq def
sametype {
v type /arraytype eq {
/vlen v length def
/cpdvlen cpdv length def
vlen cpdvlen eq {
0 1 vlen 1 sub {
/i exch def
/obj v i get def
/cpdobj cpdv i get def
obj cpdobj ne {
/upd true def
exit
} if
} for
} {
/upd true def
} ifelse
} {
v type /dicttype eq {
v {
/dv exch def
/dk exch def
/cpddv cpdv dk get def
dv cpddv ne {
/upd true def
exit
} if
} forall
} {
/upd true def
} ifelse
} ifelse
} if
} ifelse
upd true eq {
d k v put
} if
} if
} if
} forall
d length 0 gt {
d setpagedevice
} if
} bd
%%EndResource
%%BeginResource: procset (Apache XML Graphics EPS ProcSet) 1.0 0
%%Version: 1.0 0
%%Copyright: (Copyright 2002-2003 The Apache Software Foundation. License terms: http://www.apache.org/licenses/LICENSE-2.0)
/BeginEPSF { %def
/b4_Inc_state save def         % Save state for cleanup
/dict_count countdictstack def % Count objects on dict stack
/op_count count 1 sub def      % Count objects on operand stack
userdict begin                 % Push userdict on dict stack
/showpage { } def              % Redefine showpage, { } = null proc
0 setgray 0 setlinecap         % Prepare graphics state
1 setlinewidth 0 setlinejoin
10 setmiterlimit [ ] 0 setdash newpath
/languagelevel where           % If level not equal to 1 then
{pop languagelevel             % set strokeadjust and
1 ne                           % overprint to their defaults.
{false setstrokeadjust false setoverprint
} if
} if
} bd
/EndEPSF { %def
count op_count sub {pop} repeat            % Clean up stacks
countdictstack dict_count sub {end} repeat
b4_Inc_state restore
} bd
%%EndResource
%FOPBeginFontDict
%%IncludeResource: font Courier-Bold
%%IncludeResource: font Helvetica
%%IncludeResource: font Courier-BoldOblique
%%IncludeResource: font Courier-Oblique
%%IncludeResource: font Times-Roman
%%IncludeResource: font Helvetica-BoldOblique
%%IncludeResource: font Helvetica-Bold
%%IncludeResource: font Helvetica-Oblique
%%IncludeResource: font Times-BoldItalic
%%IncludeResource: font Courier
%%IncludeResource: font Times-Italic
%%IncludeResource: font Times-Bold
%%IncludeResource: font Symbol
%%IncludeResource: font ZapfDingbats
%FOPEndFontDict
%%BeginResource: encoding WinAnsiEncoding
/WinAnsiEncoding [
/.notdef /.notdef /.notdef /.notdef /.notdef
/.notdef /.notdef /.notdef /.notdef /.notdef
/.notdef /.notdef /.notdef /.notdef /.notdef
/.notdef /.notdef /.notdef /.notdef /.notdef
/.notdef /.notdef /.notdef /.notdef /.notdef
/.notdef /.notdef /.notdef /.notdef /.notdef
/.notdef /.notdef /space /exclam /quotedbl
/numbersign /dollar /percent /ampersand /quotesingle
/parenleft /parenright /asterisk /plus /comma
/hyphen /period /slash /zero /one
/two /three /four /five /six
/seven /eight /nine /colon /semicolon
/less /equal /greater /question /at
/A /B /C /D /E
/F /G /H /I /J
/K /L /M /N /O
/P /Q /R /S /T
/U /V /W /X /Y
/Z /bracketleft /backslash /bracketright /asciicircum
/underscore /quoteleft /a /b /c
/d /e /f /g /h
/i /j /k /l /m
/n /o /p /q /r
/s /t /u /v /w
/x /y /z /braceleft /bar
/braceright /asciitilde /bullet /Euro /bullet
/quotesinglbase /florin /quotedblbase /ellipsis /dagger
/daggerdbl /circumflex /perthousand /Scaron /guilsinglleft
/OE /bullet /Zcaron /bullet /bullet
/quoteleft /quoteright /quotedblleft /quotedblright /bullet
/endash /emdash /asciitilde /trademark /scaron
/guilsinglright /oe /bullet /zcaron /Ydieresis
/space /exclamdown /cent /sterling /currency
/yen /brokenbar /section /dieresis /copyright
/ordfeminine /guillemotleft /logicalnot /sfthyphen /registered
/macron /degree /plusminus /twosuperior /threesuperior
/acute /mu /paragraph /middot /cedilla
/onesuperior /ordmasculine /guillemotright /onequarter /onehalf
/threequarters /questiondown /Agrave /Aacute /Acircumflex
/Atilde /Adieresis /Aring /AE /Ccedilla
/Egrave /Eacute /Ecircumflex /Edieresis /Igrave
/Iacute /Icircumflex /Idieresis /Eth /Ntilde
/Ograve /Oacute /Ocircumflex /Otilde /Odieresis
/multiply /Oslash /Ugrave /Uacute /Ucircumflex
/Udieresis /Yacute /Thorn /germandbls /agrave
/aacute /acircumflex /atilde /adieresis /aring
/ae /ccedilla /egrave /eacute /ecircumflex
/edieresis /igrave /iacute /icircumflex /idieresis
/eth /ntilde /ograve /oacute /ocircumflex
/otilde /odieresis /divide /oslash /ugrave
/uacute /ucircumflex /udieresis /yacute /thorn
/ydieresis
] def
%%EndResource
%FOPBeginFontReencode
/Courier-Bold findfont
dup length dict begin
  {1 index /FID ne {def} {pop pop} ifelse} forall
  /Encoding WinAnsiEncoding def
  currentdict
end
/Courier-Bold exch definefont pop
/Helvetica findfont
dup length dict begin
  {1 index /FID ne {def} {pop pop} ifelse} forall
  /Encoding WinAnsiEncoding def
  currentdict
end
/Helvetica exch definefont pop
/Courier-BoldOblique findfont
dup length dict begin
  {1 index /FID ne {def} {pop pop} ifelse} forall
  /Encoding WinAnsiEncoding def
  currentdict
end
/Courier-BoldOblique exch definefont pop
/Courier-Oblique findfont
dup length dict begin
  {1 index /FID ne {def} {pop pop} ifelse} forall
  /Encoding WinAnsiEncoding def
  currentdict
end
/Courier-Oblique exch definefont pop
/Times-Roman findfont
dup length dict begin
  {1 index /FID ne {def} {pop pop} ifelse} forall
  /Encoding WinAnsiEncoding def
  currentdict
end
/Times-Roman exch definefont pop
/Helvetica-BoldOblique findfont
dup length dict begin
  {1 index /FID ne {def} {pop pop} ifelse} forall
  /Encoding WinAnsiEncoding def
  currentdict
end
/Helvetica-BoldOblique exch definefont pop
/Helvetica-Bold findfont
dup length dict begin
  {1 index /FID ne {def} {pop pop} ifelse} forall
  /Encoding WinAnsiEncoding def
  currentdict
end
/Helvetica-Bold exch definefont pop
/Helvetica-Oblique findfont
dup length dict begin
  {1 index /FID ne {def} {pop pop} ifelse} forall
  /Encoding WinAnsiEncoding def
  currentdict
end
/Helvetica-Oblique exch definefont pop
/Times-BoldItalic findfont
dup length dict begin
  {1 index /FID ne {def} {pop pop} ifelse} forall
  /Encoding WinAnsiEncoding def
  currentdict
end
/Times-BoldItalic exch definefont pop
/Courier findfont
dup length dict begin
  {1 index /FID ne {def} {pop pop} ifelse} forall
  /Encoding WinAnsiEncoding def
  currentdict
end
/Courier exch definefont pop
/Times-Italic findfont
dup length dict begin
  {1 index /FID ne {def} {pop pop} ifelse} forall
  /Encoding WinAnsiEncoding def
  currentdict
end
/Times-Italic exch definefont pop
/Times-Bold findfont
dup length dict begin
  {1 index /FID ne {def} {pop pop} ifelse} forall
  /Encoding WinAnsiEncoding def
  currentdict
end
/Times-Bold exch definefont pop
%FOPEndFontReencode
%%EndProlog
%%Page: 1 1
%%PageBoundingBox: 0 0 420 315
%%BeginPageSetup
[1 0 0 -1 0 315] CT
%%EndPageSetup
GS
[0.75 0 0 0.75 0 0] CT
1 GC
N
0 0 560 420 re
f
GR
GS
[0.75 0 0 0.75 0 0] CT
1 GC
N
0 0 560 420 re
f
GR
GS
[0.75 0 0 0.75 0 0] CT
1 GC
N
73 374 M
507 374 L
507 31 L
73 31 L
cp
f
GR
GS
[0.75 0 0 0.75 0 0] CT
0.149 GC
2 setlinecap
1 LJ
0.667 LW
N
73 374 M
507 374 L
S
GR
GS
[0.75 0 0 0.75 0 0] CT
0.149 GC
2 setlinecap
1 LJ
0.667 LW
N
73 31 M
507 31 L
S
GR
GS
[0.75 0 0 0.75 0 0] CT
0.149 GC
2 setlinecap
1 LJ
0.667 LW
N
73 374 M
73 369.66 L
S
GR
GS
[0.75 0 0 0.75 0 0] CT
0.149 GC
2 setlinecap
1 LJ
0.667 LW
N
159.8 374 M
159.8 369.66 L
S
GR
GS
[0.75 0 0 0.75 0 0] CT
0.149 GC
2 setlinecap
1 LJ
0.667 LW
N
246.6 374 M
246.6 369.66 L
S
GR
GS
[0.75 0 0 0.75 0 0] CT
0.149 GC
2 setlinecap
1 LJ
0.667 LW
N
333.4 374 M
333.4 369.66 L
S
GR
GS
[0.75 0 0 0.75 0 0] CT
0.149 GC
2 setlinecap
1 LJ
0.667 LW
N
420.2 374 M
420.2 369.66 L
S
GR
GS
[0.75 0 0 0.75 0 0] CT
0.149 GC
2 setlinecap
1 LJ
0.667 LW
N
507 374 M
507 369.66 L
S
GR
GS
[0.75 0 0 0.75 0 0] CT
0.149 GC
2 setlinecap
1 LJ
0.667 LW
N
73 31 M
73 35.34 L
S
GR
GS
[0.75 0 0 0.75 0 0] CT
0.149 GC
2 setlinecap
1 LJ
0.667 LW
N
159.8 31 M
159.8 35.34 L
S
GR
GS
[0.75 0 0 0.75 0 0] CT
0.149 GC
2 setlinecap
1 LJ
0.667 LW
N
246.6 31 M
246.6 35.34 L
S
GR
GS
[0.75 0 0 0.75 0 0] CT
0.149 GC
2 setlinecap
1 LJ
0.667 LW
N
333.4 31 M
333.4 35.34 L
S
GR
GS
[0.75 0 0 0.75 0 0] CT
0.149 GC
2 setlinecap
1 LJ
0.667 LW
N
420.2 31 M
420.2 35.34 L
S
GR
GS
[0.75 0 0 0.75 0 0] CT
0.149 GC
2 setlinecap
1 LJ
0.667 LW
N
507 31 M
507 35.34 L
S
GR
GS
[0.75 0 0 0.75 54.75 284.50001] CT
0.149 GC
/Helvetica 13 F
GS
[1 0 0 1 0 0] CT
-4.5 13 moveto 
1 -1 scale
(0) t 
GR
GR
GS
[0.75 0 0 0.75 119.85 284.50001] CT
0.149 GC
/Helvetica 13 F
GS
[1 0 0 1 0 0] CT
-12.5 13 moveto 
1 -1 scale
(100) t 
GR
GR
GS
[0.75 0 0 0.75 184.95 284.50001] CT
0.149 GC
/Helvetica 13 F
GS
[1 0 0 1 0 0] CT
-12.5 13 moveto 
1 -1 scale
(200) t 
GR
GR
GS
[0.75 0 0 0.75 250.05 284.50001] CT
0.149 GC
/Helvetica 13 F
GS
[1 0 0 1 0 0] CT
-12.5 13 moveto 
1 -1 scale
(300) t 
GR
GR
GS
[0.75 0 0 0.75 315.15001 284.50001] CT
0.149 GC
/Helvetica 13 F
GS
[1 0 0 1 0 0] CT
-12.5 13 moveto 
1 -1 scale
(400) t 
GR
GR
GS
[0.75 0 0 0.75 380.25 284.50001] CT
0.149 GC
/Helvetica 13 F
GS
[1 0 0 1 0 0] CT
-12.5 13 moveto 
1 -1 scale
(500) t 
GR
GR
GS
[0.75 0 0 0.75 217.50016 298.24999] CT
0.149 GC
/Helvetica 15 F
GS
[1 0 0 1 0 0] CT
-29.5 14 moveto 
1 -1 scale
(Frame t) t 
GR
GR
GS
[0.75 0 0 0.75 0 0] CT
0.149 GC
2 setlinecap
1 LJ
0.667 LW
N
73 374 M
73 31 L
S
GR
GS
[0.75 0 0 0.75 0 0] CT
0.149 GC
2 setlinecap
1 LJ
0.667 LW
N
507 374 M
507 31 L
S
GR
GS
[0.75 0 0 0.75 0 0] CT
0.149 GC
2 setlinecap
1 LJ
0.667 LW
N
73 374 M
77.34 374 L
S
GR
GS
[0.75 0 0 0.75 0 0] CT
0.149 GC
2 setlinecap
1 LJ
0.667 LW
N
73 316.833 M
77.34 316.833 L
S
GR
GS
[0.75 0 0 0.75 0 0] CT
0.149 GC
2 setlinecap
1 LJ
0.667 LW
N
73 259.667 M
77.34 259.667 L
S
GR
GS
[0.75 0 0 0.75 0 0] CT
0.149 GC
2 setlinecap
1 LJ
0.667 LW
N
73 202.5 M
77.34 202.5 L
S
GR
GS
[0.75 0 0 0.75 0 0] CT
0.149 GC
2 setlinecap
1 LJ
0.667 LW
N
73 145.333 M
77.34 145.333 L
S
GR
GS
[0.75 0 0 0.75 0 0] CT
0.149 GC
2 setlinecap
1 LJ
0.667 LW
N
73 88.167 M
77.34 88.167 L
S
GR
GS
[0.75 0 0 0.75 0 0] CT
0.149 GC
2 setlinecap
1 LJ
0.667 LW
N
73 31 M
77.34 31 L
S
GR
GS
[0.75 0 0 0.75 0 0] CT
0.149 GC
2 setlinecap
1 LJ
0.667 LW
N
507 374 M
502.66 374 L
S
GR
GS
[0.75 0 0 0.75 0 0] CT
0.149 GC
2 setlinecap
1 LJ
0.667 LW
N
507 316.833 M
502.66 316.833 L
S
GR
GS
[0.75 0 0 0.75 0 0] CT
0.149 GC
2 setlinecap
1 LJ
0.667 LW
N
507 259.667 M
502.66 259.667 L
S
GR
GS
[0.75 0 0 0.75 0 0] CT
0.149 GC
2 setlinecap
1 LJ
0.667 LW
N
507 202.5 M
502.66 202.5 L
S
GR
GS
[0.75 0 0 0.75 0 0] CT
0.149 GC
2 setlinecap
1 LJ
0.667 LW
N
507 145.333 M
502.66 145.333 L
S
GR
GS
[0.75 0 0 0.75 0 0] CT
0.149 GC
2 setlinecap
1 LJ
0.667 LW
N
507 88.167 M
502.66 88.167 L
S
GR
GS
[0.75 0 0 0.75 0 0] CT
0.149 GC
2 setlinecap
1 LJ
0.667 LW
N
507 31 M
502.66 31 L
S
GR
GS
[0.75 0 0 0.75 50.75 280.5] CT
0.149 GC
/Helvetica 13 F
GS
[1 0 0 1 0 0] CT
-13 4.5 moveto 
1 -1 scale
(-6) t 
GR
GR
GS
[0.75 0 0 0.75 50.75 237.62501] CT
0.149 GC
/Helvetica 13 F
GS
[1 0 0 1 0 0] CT
-13 4.5 moveto 
1 -1 scale
(-4) t 
GR
GR
GS
[0.75 0 0 0.75 50.75 194.74999] CT
0.149 GC
/Helvetica 13 F
GS
[1 0 0 1 0 0] CT
-13 4.5 moveto 
1 -1 scale
(-2) t 
GR
GR
GS
[0.75 0 0 0.75 50.75 151.875] CT
0.149 GC
/Helvetica 13 F
GS
[1 0 0 1 0 0] CT
-9 4.5 moveto 
1 -1 scale
(0) t 
GR
GR
GS
[0.75 0 0 0.75 50.75 109] CT
0.149 GC
/Helvetica 13 F
GS
[1 0 0 1 0 0] CT
-9 4.5 moveto 
1 -1 scale
(2) t 
GR
GR
GS
[0.75 0 0 0.75 50.75 66.125] CT
0.149 GC
/Helvetica 13 F
GS
[1 0 0 1 0 0] CT
-9 4.5 moveto 
1 -1 scale
(4) t 
GR
GR
GS
[0.75 0 0 0.75 50.75 23.25] CT
0.149 GC
/Helvetica 13 F
GS
[1 0 0 1 0 0] CT
-9 4.5 moveto 
1 -1 scale
(6) t 
GR
GR
GS
[0 -0.75 0.75 0 38 151.87487] CT
0.149 GC
/Helvetica 15 F
GS
[1 0 0 1 0 0] CT
-53.5 -4 moveto 
1 -1 scale
(Observation X) t 
GR
GR
GS
[0.75 0 0 0.75 23.25 13.5] CT
/Helvetica-Bold 15 F
GS
[1 0 0 1 0 0] CT
0 0 moveto 
1 -1 scale
(500 samples X) t 
GR
GR
GS
[0.75 0 0 0.75 115.5 18.75] CT
/Helvetica-Bold 11 F
GS
[1 0 0 1 0 0] CT
0 0 moveto 
1 -1 scale
(t) t 
GR
GR
GS
[0.75 0 0 0.75 120 13.5] CT
/Helvetica-Bold 15 F
GS
[1 0 0 1 0 0] CT
0 0 moveto 
1 -1 scale
( as a function of t for the second inf-dur HMM) t 
GR
GR
GS
[0.75 0 0 0.75 0 0] CT
0 0.447 0.741 RC
1 LJ
0.667 LW
N
73.868 213.975 M
74.736 249.634 L
75.604 192.394 L
76.472 106.819 L
77.34 215.556 L
78.208 218.558 L
79.076 199.683 L
79.944 189.916 L
80.812 214.401 L
81.68 183.014 L
82.548 231.641 L
83.416 183.073 L
84.284 189.239 L
85.152 219.221 L
86.02 153.392 L
86.888 211.302 L
87.756 169.084 L
88.624 159.83 L
89.492 188.722 L
90.36 189.498 L
91.228 179.063 L
92.096 210.487 L
92.964 173.779 L
93.832 243.056 L
94.7 163.886 L
95.568 218.522 L
96.436 204.736 L
97.304 215.672 L
98.172 208.221 L
99.04 147.966 L
99.908 260.441 L
100.776 224.339 L
101.644 188.882 L
102.512 215.135 L
103.38 200.818 L
104.248 223.778 L
105.116 252.083 L
105.984 145.982 L
106.852 215.453 L
107.72 203.557 L
108.588 186.252 L
109.456 224.794 L
110.324 175.69 L
111.192 206.723 L
112.06 199.21 L
112.928 240.714 L
113.796 195.42 L
114.664 207.68 L
115.532 248.417 L
116.4 221.391 L
S
GR
GS
[0.75 0 0 0.75 0 0] CT
0 0.447 0.741 RC
1 LJ
0.667 LW
N
115.532 248.417 M
116.4 221.391 L
117.268 175.731 L
118.136 178.891 L
119.004 205.868 L
119.872 215.391 L
120.74 179.223 L
121.608 166.616 L
122.476 275.604 L
123.344 180.746 L
124.212 200.348 L
125.08 193.702 L
125.948 206.952 L
126.816 244.003 L
127.684 218.971 L
128.552 211.262 L
129.42 185.645 L
130.288 203.397 L
131.156 274.291 L
132.024 178.993 L
132.892 220.314 L
133.76 201.426 L
134.628 187.877 L
135.496 181.867 L
136.364 282.045 L
137.232 174.234 L
138.1 209.888 L
138.968 169.05 L
139.836 189.106 L
140.704 220.227 L
141.572 243.556 L
142.44 213.887 L
143.308 271.458 L
144.176 193.28 L
145.044 218.941 L
145.912 153.233 L
146.78 173.114 L
147.648 163.064 L
148.516 182.367 L
149.384 160.731 L
150.252 191.082 L
151.12 184.392 L
151.988 214.316 L
152.856 201.763 L
153.724 220.354 L
154.592 198.378 L
155.46 209.444 L
156.328 182.52 L
157.196 145.03 L
158.064 186.15 L
158.932 232.932 L
159.8 194.869 L
S
GR
GS
[0.75 0 0 0.75 0 0] CT
0 0.447 0.741 RC
1 LJ
0.667 LW
N
158.932 232.932 M
159.8 194.869 L
160.668 202.795 L
161.536 157.442 L
162.404 226.375 L
163.272 190.276 L
164.14 189.33 L
165.008 198.559 L
165.876 190.78 L
166.744 238.493 L
167.612 211.805 L
168.48 195.344 L
169.348 218.417 L
170.216 172.72 L
171.084 211.969 L
171.952 211.32 L
172.82 236.103 L
173.688 212.845 L
174.556 183.751 L
175.424 175.904 L
176.292 191.414 L
177.16 216.89 L
178.028 224.218 L
178.896 244.62 L
179.764 164.564 L
180.632 243.278 L
181.5 251.984 L
182.368 205.197 L
183.236 209.784 L
184.104 215.383 L
184.972 221.459 L
185.84 192 L
186.708 196.357 L
187.576 214.502 L
188.444 212.762 L
189.312 166.745 L
190.18 219.771 L
191.048 173.267 L
191.916 245.655 L
192.784 225.061 L
193.652 202.629 L
194.52 251.281 L
195.388 182.06 L
196.256 216.578 L
197.124 169.838 L
197.992 162.472 L
198.86 218.083 L
199.728 135.142 L
200.596 212.163 L
201.464 186.869 L
202.332 222.968 L
203.2 207.078 L
S
GR
GS
[0.75 0 0 0.75 0 0] CT
0 0.447 0.741 RC
1 LJ
0.667 LW
N
202.332 222.968 M
203.2 207.078 L
204.068 248.732 L
204.936 187.668 L
205.804 209.368 L
206.672 185.429 L
207.54 242.723 L
208.408 259.357 L
209.276 186.294 L
210.144 164.442 L
211.012 225.57 L
211.88 193.83 L
212.748 204.813 L
213.616 210.667 L
214.484 192.072 L
215.352 220.468 L
216.22 169.149 L
217.088 174.24 L
217.956 238.904 L
218.824 156.511 L
219.692 223.376 L
220.56 181.934 L
221.428 254.965 L
222.296 187.967 L
223.164 231.277 L
224.032 212.369 L
224.9 195.58 L
225.768 248.947 L
226.636 182.787 L
227.504 203.111 L
228.372 169.997 L
229.24 241.432 L
230.108 199.175 L
230.976 180.091 L
231.844 160.737 L
232.712 183.796 L
233.58 244.207 L
234.448 152.602 L
235.316 192.387 L
236.184 188.787 L
237.052 199.53 L
237.92 205.916 L
238.788 187.292 L
239.656 164.223 L
240.524 204.258 L
241.392 187.971 L
242.26 186.231 L
243.128 205.776 L
243.996 223.462 L
244.864 198.262 L
245.732 186.76 L
246.6 220.291 L
S
GR
GS
[0.75 0 0 0.75 0 0] CT
0 0.447 0.741 RC
1 LJ
0.667 LW
N
245.732 186.76 M
246.6 220.291 L
247.468 222.51 L
248.336 207.085 L
249.204 147.041 L
250.072 179.208 L
250.94 194.336 L
251.808 218.048 L
252.676 147.494 L
253.544 234.141 L
254.412 191.629 L
255.28 193.048 L
256.148 234.699 L
257.016 167.735 L
257.884 153.417 L
258.752 242.443 L
259.62 199.175 L
260.488 219.367 L
261.356 212.495 L
262.224 266.191 L
263.092 205.38 L
263.96 233.491 L
264.828 180.848 L
265.696 179.369 L
266.564 149.814 L
267.432 177.352 L
268.3 243.112 L
269.168 103.07 L
270.036 174.121 L
270.904 277.838 L
271.772 113.795 L
272.64 238.251 L
273.508 284.112 L
274.376 212.543 L
275.244 253.816 L
276.112 124.56 L
276.98 203.901 L
277.848 189.522 L
278.716 276.957 L
279.584 165.512 L
280.452 245.365 L
281.32 220.288 L
282.188 226.757 L
283.056 209.345 L
283.924 182.172 L
284.792 110.75 L
285.66 157.277 L
286.528 340.97 L
287.396 190.929 L
288.264 92.425 L
289.132 276.367 L
290 358.798 L
S
GR
GS
[0.75 0 0 0.75 0 0] CT
0 0.447 0.741 RC
1 LJ
0.667 LW
N
289.132 276.367 M
290 358.798 L
290.868 264.508 L
291.736 204.631 L
292.604 212.941 L
293.472 185.804 L
294.34 226.566 L
295.208 225.368 L
296.076 188.795 L
296.944 249.358 L
297.812 109.242 L
298.68 206.189 L
299.548 134.614 L
300.416 285.078 L
301.284 349.96 L
302.152 231.58 L
303.02 172.07 L
303.888 310.158 L
304.756 219.88 L
305.624 167.744 L
306.492 151.575 L
307.36 173.626 L
308.228 245.429 L
309.096 200.643 L
309.964 177.731 L
310.832 238.324 L
311.7 235.365 L
312.568 124.009 L
313.436 83.482 L
314.304 237.812 L
315.172 283.141 L
316.04 186.608 L
316.908 196.453 L
317.776 205.861 L
318.644 207.394 L
319.512 219.005 L
320.38 195.367 L
321.248 173.648 L
322.116 184.82 L
322.984 208.477 L
323.852 183.592 L
324.72 190.46 L
325.588 216.914 L
326.456 164.716 L
327.324 216.951 L
328.192 209.245 L
329.06 179.543 L
329.928 273.192 L
330.796 221.122 L
331.664 177.189 L
332.532 177.944 L
333.4 193.158 L
S
GR
GS
[0.75 0 0 0.75 0 0] CT
0 0.447 0.741 RC
1 LJ
0.667 LW
N
332.532 177.944 M
333.4 193.158 L
334.268 207.429 L
335.136 164.701 L
336.004 148.602 L
336.872 197.624 L
337.74 245.322 L
338.608 212.625 L
339.476 239.981 L
340.344 262.747 L
341.212 170.585 L
342.08 203.637 L
342.948 203.131 L
343.816 201.862 L
344.684 256.918 L
345.552 160.718 L
346.42 136.944 L
347.288 200.627 L
348.156 148.479 L
349.024 163.96 L
349.892 220.303 L
350.76 183.27 L
351.628 223.2 L
352.496 203.28 L
353.364 178.891 L
354.232 212.704 L
355.1 164.713 L
355.968 191.61 L
356.836 185.058 L
357.704 213.63 L
358.572 189.074 L
359.44 160.315 L
360.308 182.876 L
361.176 261.567 L
362.044 234.129 L
362.912 185.22 L
363.78 210.772 L
364.648 267.446 L
365.516 145.55 L
366.384 229.921 L
367.252 293.102 L
368.12 227.844 L
368.988 205.061 L
369.856 153.274 L
370.724 164.257 L
371.592 204.17 L
372.46 233.229 L
373.328 198.298 L
374.196 190.24 L
375.064 217.887 L
375.932 201.505 L
376.8 185.741 L
S
GR
GS
[0.75 0 0 0.75 0 0] CT
0 0.447 0.741 RC
1 LJ
0.667 LW
N
375.932 201.505 M
376.8 185.741 L
377.668 164.439 L
378.536 207.909 L
379.404 172.076 L
380.272 197.254 L
381.14 194.21 L
382.008 244.64 L
382.876 199.521 L
383.744 210.266 L
384.612 191.654 L
385.48 232.999 L
386.348 192.971 L
387.216 214.761 L
388.084 186.601 L
388.952 199.833 L
389.82 143.276 L
390.688 233.921 L
391.556 182.794 L
392.424 195.42 L
393.292 191.213 L
394.16 219.991 L
395.028 158.292 L
395.896 212.488 L
396.764 223.623 L
397.632 205.034 L
398.5 199.527 L
399.368 260.48 L
400.236 177.899 L
401.104 227.212 L
401.972 227.019 L
402.84 155.635 L
403.708 193.527 L
404.576 160.905 L
405.444 213.318 L
406.312 173.956 L
407.18 193.825 L
408.048 192.814 L
408.916 169.75 L
409.784 149.891 L
410.652 232.033 L
411.52 227.961 L
412.388 211.479 L
413.256 181.389 L
414.124 219.818 L
414.992 166.454 L
415.86 249.566 L
416.728 174.649 L
417.596 170.62 L
418.464 243.903 L
419.332 211.147 L
420.2 235.329 L
S
GR
GS
[0.75 0 0 0.75 0 0] CT
0 0.447 0.741 RC
1 LJ
0.667 LW
N
419.332 211.147 M
420.2 235.329 L
421.068 164.46 L
421.936 157.225 L
422.804 240.263 L
423.672 224.553 L
424.54 213.369 L
425.408 204.477 L
426.276 155.848 L
427.144 256.057 L
428.012 142.015 L
428.88 235.413 L
429.748 170.468 L
430.616 171.116 L
431.484 208.259 L
432.352 191.058 L
433.22 186.912 L
434.088 160.653 L
434.956 193.82 L
435.824 196.266 L
436.692 235.528 L
437.56 200.766 L
438.428 236.839 L
439.296 234.397 L
440.164 285.762 L
441.032 229.233 L
441.9 188.072 L
442.768 206.436 L
443.636 260.886 L
444.504 168.026 L
445.372 210.466 L
446.24 206.84 L
447.108 204.137 L
447.976 199.01 L
448.844 193.697 L
449.712 182.41 L
450.58 155.025 L
451.448 249.501 L
452.316 203.204 L
453.184 196.979 L
454.052 173.41 L
454.92 209.778 L
455.788 198.671 L
456.656 230.034 L
457.524 249.19 L
458.392 153.985 L
459.26 189.394 L
460.128 201.304 L
460.996 244.609 L
461.864 174.353 L
462.732 215.133 L
463.6 184.732 L
S
GR
GS
[0.75 0 0 0.75 0 0] CT
0 0.447 0.741 RC
1 LJ
0.667 LW
N
462.732 215.133 M
463.6 184.732 L
464.468 246.982 L
465.336 237.25 L
466.204 232.675 L
467.072 215.772 L
467.94 156.908 L
468.808 185.075 L
469.676 217.632 L
470.544 186.92 L
471.412 200.501 L
472.28 171.795 L
473.148 204.195 L
474.016 198.138 L
474.884 145.747 L
475.752 256.84 L
476.62 257.738 L
477.488 211.633 L
478.356 191.102 L
479.224 190.373 L
480.092 250.418 L
480.96 174.857 L
481.828 198.654 L
482.696 178.395 L
483.564 208.885 L
484.432 233.326 L
485.3 184.952 L
486.168 202.364 L
487.036 228.734 L
487.904 215.733 L
488.772 194.684 L
489.64 156.99 L
490.508 236.996 L
491.376 206.143 L
492.244 160.154 L
493.112 142.453 L
493.98 266.327 L
494.848 103.638 L
495.716 280.387 L
496.584 157.618 L
497.452 145.441 L
498.32 147.871 L
499.188 224.194 L
500.056 201.547 L
500.924 196.001 L
501.792 201.918 L
502.66 252.916 L
503.528 259.096 L
504.396 289.074 L
505.264 159.317 L
506.132 83.384 L
507 181.884 L
S
GR
GS
[0.75 0 0 0.75 0 0] CT
0 0.447 0.741 RC
1 LJ
0.667 LW
N
506.132 83.384 M
507 181.884 L
S
GR
%%Trailer
%%Pages: 1
%%EOF
