%!PS-Adobe-3.0 EPSF-3.0
%%Creator: (MATLAB, The Mathworks, Inc. Version 8.6.0.267246 \(R2015b\). Operating System: Linux)
%%Title: /afs/kth.se/home/s/a/samiula/Documents/PatternRecognition/PattRecClasses/Report/plot.eps
%%CreationDate: 2016-09-20T14:52:12
%%Pages: (atend)
%%BoundingBox: 0 0 428 338
%%LanguageLevel: 2
%%EndComments
%%BeginProlog
%%BeginResource: procset (Apache XML Graphics Std ProcSet) 1.2 0
%%Version: 1.2 0
%%Copyright: (Copyright 2001-2003,2010 The Apache Software Foundation. License terms: http://www.apache.org/licenses/LICENSE-2.0)
/bd{bind def}bind def
/ld{load def}bd
/GR/grestore ld
/M/moveto ld
/LJ/setlinejoin ld
/C/curveto ld
/f/fill ld
/LW/setlinewidth ld
/GC/setgray ld
/t/show ld
/N/newpath ld
/CT/concat ld
/cp/closepath ld
/S/stroke ld
/L/lineto ld
/CC/setcmykcolor ld
/A/ashow ld
/GS/gsave ld
/RC/setrgbcolor ld
/RM/rmoveto ld
/ML/setmiterlimit ld
/re {4 2 roll M
1 index 0 rlineto
0 exch rlineto
neg 0 rlineto
cp } bd
/_ctm matrix def
/_tm matrix def
/BT { _ctm currentmatrix pop matrix _tm copy pop 0 0 moveto } bd
/ET { _ctm setmatrix } bd
/iTm { _ctm setmatrix _tm concat } bd
/Tm { _tm astore pop iTm 0 0 moveto } bd
/ux 0.0 def
/uy 0.0 def
/F {
  /Tp exch def
  /Tf exch def
  Tf findfont Tp scalefont setfont
  /cf Tf def  /cs Tp def
} bd
/ULS {currentpoint /uy exch def /ux exch def} bd
/ULE {
  /Tcx currentpoint pop def
  gsave
  newpath
  cf findfont cs scalefont dup
  /FontMatrix get 0 get /Ts exch def /FontInfo get dup
  /UnderlinePosition get Ts mul /To exch def
  /UnderlineThickness get Ts mul /Tt exch def
  ux uy To add moveto  Tcx uy To add lineto
  Tt setlinewidth stroke
  grestore
} bd
/OLE {
  /Tcx currentpoint pop def
  gsave
  newpath
  cf findfont cs scalefont dup
  /FontMatrix get 0 get /Ts exch def /FontInfo get dup
  /UnderlinePosition get Ts mul /To exch def
  /UnderlineThickness get Ts mul /Tt exch def
  ux uy To add cs add moveto Tcx uy To add cs add lineto
  Tt setlinewidth stroke
  grestore
} bd
/SOE {
  /Tcx currentpoint pop def
  gsave
  newpath
  cf findfont cs scalefont dup
  /FontMatrix get 0 get /Ts exch def /FontInfo get dup
  /UnderlinePosition get Ts mul /To exch def
  /UnderlineThickness get Ts mul /Tt exch def
  ux uy To add cs 10 mul 26 idiv add moveto Tcx uy To add cs 10 mul 26 idiv add lineto
  Tt setlinewidth stroke
  grestore
} bd
/QT {
/Y22 exch store
/X22 exch store
/Y21 exch store
/X21 exch store
currentpoint
/Y21 load 2 mul add 3 div exch
/X21 load 2 mul add 3 div exch
/X21 load 2 mul /X22 load add 3 div
/Y21 load 2 mul /Y22 load add 3 div
/X22 load /Y22 load curveto
} bd
/SSPD {
dup length /d exch dict def
{
/v exch def
/k exch def
currentpagedevice k known {
/cpdv currentpagedevice k get def
v cpdv ne {
/upd false def
/nullv v type /nulltype eq def
/nullcpdv cpdv type /nulltype eq def
nullv nullcpdv or
{
/upd true def
} {
/sametype v type cpdv type eq def
sametype {
v type /arraytype eq {
/vlen v length def
/cpdvlen cpdv length def
vlen cpdvlen eq {
0 1 vlen 1 sub {
/i exch def
/obj v i get def
/cpdobj cpdv i get def
obj cpdobj ne {
/upd true def
exit
} if
} for
} {
/upd true def
} ifelse
} {
v type /dicttype eq {
v {
/dv exch def
/dk exch def
/cpddv cpdv dk get def
dv cpddv ne {
/upd true def
exit
} if
} forall
} {
/upd true def
} ifelse
} ifelse
} if
} ifelse
upd true eq {
d k v put
} if
} if
} if
} forall
d length 0 gt {
d setpagedevice
} if
} bd
%%EndResource
%%BeginResource: procset (Apache XML Graphics EPS ProcSet) 1.0 0
%%Version: 1.0 0
%%Copyright: (Copyright 2002-2003 The Apache Software Foundation. License terms: http://www.apache.org/licenses/LICENSE-2.0)
/BeginEPSF { %def
/b4_Inc_state save def         % Save state for cleanup
/dict_count countdictstack def % Count objects on dict stack
/op_count count 1 sub def      % Count objects on operand stack
userdict begin                 % Push userdict on dict stack
/showpage { } def              % Redefine showpage, { } = null proc
0 setgray 0 setlinecap         % Prepare graphics state
1 setlinewidth 0 setlinejoin
10 setmiterlimit [ ] 0 setdash newpath
/languagelevel where           % If level not equal to 1 then
{pop languagelevel             % set strokeadjust and
1 ne                           % overprint to their defaults.
{false setstrokeadjust false setoverprint
} if
} if
} bd
/EndEPSF { %def
count op_count sub {pop} repeat            % Clean up stacks
countdictstack dict_count sub {end} repeat
b4_Inc_state restore
} bd
%%EndResource
%FOPBeginFontDict
%%IncludeResource: font Courier-Bold
%%IncludeResource: font Helvetica
%%IncludeResource: font Courier-BoldOblique
%%IncludeResource: font Courier-Oblique
%%IncludeResource: font Times-Roman
%%IncludeResource: font Helvetica-BoldOblique
%%IncludeResource: font Helvetica-Bold
%%IncludeResource: font Helvetica-Oblique
%%IncludeResource: font Times-BoldItalic
%%IncludeResource: font Courier
%%IncludeResource: font Times-Italic
%%IncludeResource: font Times-Bold
%%IncludeResource: font Symbol
%%IncludeResource: font ZapfDingbats
%FOPEndFontDict
%%BeginResource: encoding WinAnsiEncoding
/WinAnsiEncoding [
/.notdef /.notdef /.notdef /.notdef /.notdef
/.notdef /.notdef /.notdef /.notdef /.notdef
/.notdef /.notdef /.notdef /.notdef /.notdef
/.notdef /.notdef /.notdef /.notdef /.notdef
/.notdef /.notdef /.notdef /.notdef /.notdef
/.notdef /.notdef /.notdef /.notdef /.notdef
/.notdef /.notdef /space /exclam /quotedbl
/numbersign /dollar /percent /ampersand /quotesingle
/parenleft /parenright /asterisk /plus /comma
/hyphen /period /slash /zero /one
/two /three /four /five /six
/seven /eight /nine /colon /semicolon
/less /equal /greater /question /at
/A /B /C /D /E
/F /G /H /I /J
/K /L /M /N /O
/P /Q /R /S /T
/U /V /W /X /Y
/Z /bracketleft /backslash /bracketright /asciicircum
/underscore /quoteleft /a /b /c
/d /e /f /g /h
/i /j /k /l /m
/n /o /p /q /r
/s /t /u /v /w
/x /y /z /braceleft /bar
/braceright /asciitilde /bullet /Euro /bullet
/quotesinglbase /florin /quotedblbase /ellipsis /dagger
/daggerdbl /circumflex /perthousand /Scaron /guilsinglleft
/OE /bullet /Zcaron /bullet /bullet
/quoteleft /quoteright /quotedblleft /quotedblright /bullet
/endash /emdash /asciitilde /trademark /scaron
/guilsinglright /oe /bullet /zcaron /Ydieresis
/space /exclamdown /cent /sterling /currency
/yen /brokenbar /section /dieresis /copyright
/ordfeminine /guillemotleft /logicalnot /sfthyphen /registered
/macron /degree /plusminus /twosuperior /threesuperior
/acute /mu /paragraph /middot /cedilla
/onesuperior /ordmasculine /guillemotright /onequarter /onehalf
/threequarters /questiondown /Agrave /Aacute /Acircumflex
/Atilde /Adieresis /Aring /AE /Ccedilla
/Egrave /Eacute /Ecircumflex /Edieresis /Igrave
/Iacute /Icircumflex /Idieresis /Eth /Ntilde
/Ograve /Oacute /Ocircumflex /Otilde /Odieresis
/multiply /Oslash /Ugrave /Uacute /Ucircumflex
/Udieresis /Yacute /Thorn /germandbls /agrave
/aacute /acircumflex /atilde /adieresis /aring
/ae /ccedilla /egrave /eacute /ecircumflex
/edieresis /igrave /iacute /icircumflex /idieresis
/eth /ntilde /ograve /oacute /ocircumflex
/otilde /odieresis /divide /oslash /ugrave
/uacute /ucircumflex /udieresis /yacute /thorn
/ydieresis
] def
%%EndResource
%FOPBeginFontReencode
/Courier-Bold findfont
dup length dict begin
  {1 index /FID ne {def} {pop pop} ifelse} forall
  /Encoding WinAnsiEncoding def
  currentdict
end
/Courier-Bold exch definefont pop
/Helvetica findfont
dup length dict begin
  {1 index /FID ne {def} {pop pop} ifelse} forall
  /Encoding WinAnsiEncoding def
  currentdict
end
/Helvetica exch definefont pop
/Courier-BoldOblique findfont
dup length dict begin
  {1 index /FID ne {def} {pop pop} ifelse} forall
  /Encoding WinAnsiEncoding def
  currentdict
end
/Courier-BoldOblique exch definefont pop
/Courier-Oblique findfont
dup length dict begin
  {1 index /FID ne {def} {pop pop} ifelse} forall
  /Encoding WinAnsiEncoding def
  currentdict
end
/Courier-Oblique exch definefont pop
/Times-Roman findfont
dup length dict begin
  {1 index /FID ne {def} {pop pop} ifelse} forall
  /Encoding WinAnsiEncoding def
  currentdict
end
/Times-Roman exch definefont pop
/Helvetica-BoldOblique findfont
dup length dict begin
  {1 index /FID ne {def} {pop pop} ifelse} forall
  /Encoding WinAnsiEncoding def
  currentdict
end
/Helvetica-BoldOblique exch definefont pop
/Helvetica-Bold findfont
dup length dict begin
  {1 index /FID ne {def} {pop pop} ifelse} forall
  /Encoding WinAnsiEncoding def
  currentdict
end
/Helvetica-Bold exch definefont pop
/Helvetica-Oblique findfont
dup length dict begin
  {1 index /FID ne {def} {pop pop} ifelse} forall
  /Encoding WinAnsiEncoding def
  currentdict
end
/Helvetica-Oblique exch definefont pop
/Times-BoldItalic findfont
dup length dict begin
  {1 index /FID ne {def} {pop pop} ifelse} forall
  /Encoding WinAnsiEncoding def
  currentdict
end
/Times-BoldItalic exch definefont pop
/Courier findfont
dup length dict begin
  {1 index /FID ne {def} {pop pop} ifelse} forall
  /Encoding WinAnsiEncoding def
  currentdict
end
/Courier exch definefont pop
/Times-Italic findfont
dup length dict begin
  {1 index /FID ne {def} {pop pop} ifelse} forall
  /Encoding WinAnsiEncoding def
  currentdict
end
/Times-Italic exch definefont pop
/Times-Bold findfont
dup length dict begin
  {1 index /FID ne {def} {pop pop} ifelse} forall
  /Encoding WinAnsiEncoding def
  currentdict
end
/Times-Bold exch definefont pop
%FOPEndFontReencode
%%EndProlog
%%Page: 1 1
%%PageBoundingBox: 0 0 428 338
%%BeginPageSetup
[1 0 0 -1 0 338] CT
%%EndPageSetup
GS
[0.75 0 0 0.75 0 0.5] CT
N
0 0 M
570 0 L
570 450 L
0 450 L
0 0 L
cp
clip
1 GC
N
0 0 570 450 re
f
GR
GS
[0.75 0 0 0.75 0 0.5] CT
1 GC
N
0 0 570 450 re
f
GR
GS
[0.75 0 0 0.75 0 0.5] CT
1 GC
N
74 400 M
516 400 L
516 34 L
74 34 L
cp
f
GR
GS
[0.75 0 0 0.75 0 0.5] CT
0.149 GC
2 setlinecap
1 LJ
0.667 LW
N
74 400 M
516 400 L
S
GR
GS
[0.75 0 0 0.75 0 0.5] CT
0.149 GC
2 setlinecap
1 LJ
0.667 LW
N
74 34 M
516 34 L
S
GR
GS
[0.75 0 0 0.75 0 0.5] CT
0.149 GC
2 setlinecap
1 LJ
0.667 LW
N
74 400 M
74 395.58 L
S
GR
GS
[0.75 0 0 0.75 0 0.5] CT
0.149 GC
2 setlinecap
1 LJ
0.667 LW
N
162.4 400 M
162.4 395.58 L
S
GR
GS
[0.75 0 0 0.75 0 0.5] CT
0.149 GC
2 setlinecap
1 LJ
0.667 LW
N
250.8 400 M
250.8 395.58 L
S
GR
GS
[0.75 0 0 0.75 0 0.5] CT
0.149 GC
2 setlinecap
1 LJ
0.667 LW
N
339.2 400 M
339.2 395.58 L
S
GR
GS
[0.75 0 0 0.75 0 0.5] CT
0.149 GC
2 setlinecap
1 LJ
0.667 LW
N
427.6 400 M
427.6 395.58 L
S
GR
GS
[0.75 0 0 0.75 0 0.5] CT
0.149 GC
2 setlinecap
1 LJ
0.667 LW
N
516 400 M
516 395.58 L
S
GR
GS
[0.75 0 0 0.75 0 0.5] CT
0.149 GC
2 setlinecap
1 LJ
0.667 LW
N
74 34 M
74 38.42 L
S
GR
GS
[0.75 0 0 0.75 0 0.5] CT
0.149 GC
2 setlinecap
1 LJ
0.667 LW
N
162.4 34 M
162.4 38.42 L
S
GR
GS
[0.75 0 0 0.75 0 0.5] CT
0.149 GC
2 setlinecap
1 LJ
0.667 LW
N
250.8 34 M
250.8 38.42 L
S
GR
GS
[0.75 0 0 0.75 0 0.5] CT
0.149 GC
2 setlinecap
1 LJ
0.667 LW
N
339.2 34 M
339.2 38.42 L
S
GR
GS
[0.75 0 0 0.75 0 0.5] CT
0.149 GC
2 setlinecap
1 LJ
0.667 LW
N
427.6 34 M
427.6 38.42 L
S
GR
GS
[0.75 0 0 0.75 0 0.5] CT
0.149 GC
2 setlinecap
1 LJ
0.667 LW
N
516 34 M
516 38.42 L
S
GR
GS
[0.75 0 0 0.75 55.5 304.50001] CT
0.149 GC
/Helvetica 13 F
GS
[1 0 0 1 0 0] CT
-4.5 13 moveto 
1 -1 scale
(0) t 
GR
GR
GS
[0.75 0 0 0.75 121.8 304.50001] CT
0.149 GC
/Helvetica 13 F
GS
[1 0 0 1 0 0] CT
-12.5 13 moveto 
1 -1 scale
(100) t 
GR
GR
GS
[0.75 0 0 0.75 188.1 304.50001] CT
0.149 GC
/Helvetica 13 F
GS
[1 0 0 1 0 0] CT
-12.5 13 moveto 
1 -1 scale
(200) t 
GR
GR
GS
[0.75 0 0 0.75 254.40001 304.50001] CT
0.149 GC
/Helvetica 13 F
GS
[1 0 0 1 0 0] CT
-12.5 13 moveto 
1 -1 scale
(300) t 
GR
GR
GS
[0.75 0 0 0.75 320.7 304.50001] CT
0.149 GC
/Helvetica 13 F
GS
[1 0 0 1 0 0] CT
-12.5 13 moveto 
1 -1 scale
(400) t 
GR
GR
GS
[0.75 0 0 0.75 387 304.50001] CT
0.149 GC
/Helvetica 13 F
GS
[1 0 0 1 0 0] CT
-12.5 13 moveto 
1 -1 scale
(500) t 
GR
GR
GS
[0.75 0 0 0.75 221.25016 318.24999] CT
0.149 GC
/Helvetica 15 F
GS
[1 0 0 1 0 0] CT
-29.5 14 moveto 
1 -1 scale
(Frame t) t 
GR
GR
GS
[0.75 0 0 0.75 0 0.5] CT
0.149 GC
2 setlinecap
1 LJ
0.667 LW
N
74 400 M
74 34 L
S
GR
GS
[0.75 0 0 0.75 0 0.5] CT
0.149 GC
2 setlinecap
1 LJ
0.667 LW
N
516 400 M
516 34 L
S
GR
GS
[0.75 0 0 0.75 0 0.5] CT
0.149 GC
2 setlinecap
1 LJ
0.667 LW
N
74 400 M
78.42 400 L
S
GR
GS
[0.75 0 0 0.75 0 0.5] CT
0.149 GC
2 setlinecap
1 LJ
0.667 LW
N
74 339 M
78.42 339 L
S
GR
GS
[0.75 0 0 0.75 0 0.5] CT
0.149 GC
2 setlinecap
1 LJ
0.667 LW
N
74 278 M
78.42 278 L
S
GR
GS
[0.75 0 0 0.75 0 0.5] CT
0.149 GC
2 setlinecap
1 LJ
0.667 LW
N
74 217 M
78.42 217 L
S
GR
GS
[0.75 0 0 0.75 0 0.5] CT
0.149 GC
2 setlinecap
1 LJ
0.667 LW
N
74 156 M
78.42 156 L
S
GR
GS
[0.75 0 0 0.75 0 0.5] CT
0.149 GC
2 setlinecap
1 LJ
0.667 LW
N
74 95 M
78.42 95 L
S
GR
GS
[0.75 0 0 0.75 0 0.5] CT
0.149 GC
2 setlinecap
1 LJ
0.667 LW
N
74 34 M
78.42 34 L
S
GR
GS
[0.75 0 0 0.75 0 0.5] CT
0.149 GC
2 setlinecap
1 LJ
0.667 LW
N
516 400 M
511.58 400 L
S
GR
GS
[0.75 0 0 0.75 0 0.5] CT
0.149 GC
2 setlinecap
1 LJ
0.667 LW
N
516 339 M
511.58 339 L
S
GR
GS
[0.75 0 0 0.75 0 0.5] CT
0.149 GC
2 setlinecap
1 LJ
0.667 LW
N
516 278 M
511.58 278 L
S
GR
GS
[0.75 0 0 0.75 0 0.5] CT
0.149 GC
2 setlinecap
1 LJ
0.667 LW
N
516 217 M
511.58 217 L
S
GR
GS
[0.75 0 0 0.75 0 0.5] CT
0.149 GC
2 setlinecap
1 LJ
0.667 LW
N
516 156 M
511.58 156 L
S
GR
GS
[0.75 0 0 0.75 0 0.5] CT
0.149 GC
2 setlinecap
1 LJ
0.667 LW
N
516 95 M
511.58 95 L
S
GR
GS
[0.75 0 0 0.75 0 0.5] CT
0.149 GC
2 setlinecap
1 LJ
0.667 LW
N
516 34 M
511.58 34 L
S
GR
GS
[0.75 0 0 0.75 51.5 300.5] CT
0.149 GC
/Helvetica 13 F
GS
[1 0 0 1 0 0] CT
-13 4.5 moveto 
1 -1 scale
(-4) t 
GR
GR
GS
[0.75 0 0 0.75 51.5 254.75] CT
0.149 GC
/Helvetica 13 F
GS
[1 0 0 1 0 0] CT
-13 4.5 moveto 
1 -1 scale
(-2) t 
GR
GR
GS
[0.75 0 0 0.75 51.5 209] CT
0.149 GC
/Helvetica 13 F
GS
[1 0 0 1 0 0] CT
-9 4.5 moveto 
1 -1 scale
(0) t 
GR
GR
GS
[0.75 0 0 0.75 51.5 163.25] CT
0.149 GC
/Helvetica 13 F
GS
[1 0 0 1 0 0] CT
-9 4.5 moveto 
1 -1 scale
(2) t 
GR
GR
GS
[0.75 0 0 0.75 51.5 117.5] CT
0.149 GC
/Helvetica 13 F
GS
[1 0 0 1 0 0] CT
-9 4.5 moveto 
1 -1 scale
(4) t 
GR
GR
GS
[0.75 0 0 0.75 51.5 71.75] CT
0.149 GC
/Helvetica 13 F
GS
[1 0 0 1 0 0] CT
-9 4.5 moveto 
1 -1 scale
(6) t 
GR
GR
GS
[0.75 0 0 0.75 51.5 26] CT
0.149 GC
/Helvetica 13 F
GS
[1 0 0 1 0 0] CT
-9 4.5 moveto 
1 -1 scale
(8) t 
GR
GR
GS
[0 -0.75 0.75 0 38.75 163.24987] CT
0.149 GC
/Helvetica 15 F
GS
[1 0 0 1 0 0] CT
-53.5 -4 moveto 
1 -1 scale
(Observation X) t 
GR
GR
GS
[0.75 0 0 0.75 36.75 16.25] CT
/Helvetica-Bold 15 F
GS
[1 0 0 1 0 0] CT
0 0 moveto 
1 -1 scale
(500 samples X) t 
GR
GR
GS
[0.75 0 0 0.75 129 21.5] CT
/Helvetica-Bold 11 F
GS
[1 0 0 1 0 0] CT
0 0 moveto 
1 -1 scale
(t) t 
GR
GR
GS
[0.75 0 0 0.75 133.5 16.25] CT
/Helvetica-Bold 15 F
GS
[1 0 0 1 0 0] CT
0 0 moveto 
1 -1 scale
( as a function of t for the first inf-dur HMM) t 
GR
GR
GS
[0.75 0 0 0.75 0 0.5] CT
0 0.447 0.741 RC
1 LJ
0.667 LW
N
74.884 208.17 M
75.768 267.88 L
76.652 326.033 L
77.536 315.623 L
78.42 293.801 L
79.304 280.733 L
80.188 259.376 L
81.072 293.192 L
81.956 305.942 L
82.84 282.559 L
83.724 321.385 L
84.608 317.485 L
85.492 294.836 L
86.376 315.159 L
87.26 263.275 L
88.144 351.676 L
89.028 221.584 L
89.912 308.238 L
90.796 253.238 L
91.68 226.643 L
92.564 234.755 L
93.448 246.848 L
94.332 314.691 L
95.216 267.971 L
96.1 291.321 L
96.984 320.142 L
97.868 265.193 L
98.752 274.815 L
99.636 296.548 L
100.52 319.507 L
101.404 295.66 L
102.288 270.668 L
103.172 245.917 L
104.056 233.279 L
104.94 277.854 L
105.824 215.801 L
106.708 269.43 L
107.592 233.582 L
108.476 277.832 L
109.36 269.057 L
110.244 236.133 L
111.128 259.434 L
112.012 257.44 L
112.896 220.956 L
113.78 261.448 L
114.664 341.871 L
115.548 318.619 L
116.432 321.365 L
117.316 233.653 L
118.2 309.439 L
S
GR
GS
[0.75 0 0 0.75 0 0.5] CT
0 0.447 0.741 RC
1 LJ
0.667 LW
N
117.316 233.653 M
118.2 309.439 L
119.084 264.006 L
119.968 271.671 L
120.852 306.631 L
121.736 295.781 L
122.62 284.647 L
123.504 235.288 L
124.388 298.994 L
125.272 267.368 L
126.156 314.95 L
127.04 261.018 L
127.924 298.99 L
128.808 279.914 L
129.692 260.601 L
130.576 192.532 L
131.46 345.347 L
132.344 332.597 L
133.228 271.615 L
134.112 274.549 L
134.996 252.84 L
135.88 273.944 L
136.764 253.982 L
137.648 270.085 L
138.532 299.443 L
139.416 226.212 L
140.3 256.315 L
141.184 231.456 L
142.068 196.903 L
142.952 203.213 L
143.836 244.959 L
144.72 282.372 L
145.604 298.173 L
146.488 251.86 L
147.372 280.954 L
148.256 284.491 L
149.14 283.771 L
150.024 329.657 L
150.908 260.79 L
151.792 329.533 L
152.676 304.739 L
153.56 303.091 L
154.444 266.281 L
155.328 256.882 L
156.212 260.376 L
157.096 278.196 L
157.98 306.28 L
158.864 193.025 L
159.748 251.395 L
160.632 223.2 L
161.516 210.238 L
162.4 143.849 L
S
GR
GS
[0.75 0 0 0.75 0 0.5] CT
0 0.447 0.741 RC
1 LJ
0.667 LW
N
161.516 210.238 M
162.4 143.849 L
163.284 99.948 L
164.168 189.602 L
165.052 122.246 L
165.936 257.304 L
166.82 212.98 L
167.704 182.683 L
168.588 180.692 L
169.472 123.131 L
170.356 349.124 L
171.24 190.219 L
172.124 138.879 L
173.008 184.237 L
173.892 268.833 L
174.776 203.865 L
175.66 216.388 L
176.544 161.599 L
177.428 287.017 L
178.312 170.401 L
179.196 152.595 L
180.08 159.605 L
180.964 166.928 L
181.848 257.324 L
182.732 50.933 L
183.616 202.001 L
184.5 140.325 L
185.384 170.3 L
186.268 177.332 L
187.152 325.23 L
188.036 114.255 L
188.92 112.005 L
189.804 246.081 L
190.688 99.677 L
191.572 163.497 L
192.456 262.77 L
193.34 187.682 L
194.224 160.75 L
195.108 207.482 L
195.992 130.305 L
196.876 251.015 L
197.76 223.556 L
198.644 204.02 L
199.528 39.577 L
200.412 213.794 L
201.296 138.771 L
202.18 294.33 L
203.064 241.157 L
203.948 315.997 L
204.832 246.505 L
205.716 327.981 L
206.6 307.181 L
S
GR
GS
[0.75 0 0 0.75 0 0.5] CT
0 0.447 0.741 RC
1 LJ
0.667 LW
N
205.716 327.981 M
206.6 307.181 L
207.484 266.16 L
208.368 304.472 L
209.252 272.787 L
210.136 283.965 L
211.02 300.925 L
211.904 264.365 L
212.788 286.28 L
213.672 325.783 L
214.556 310.491 L
215.44 310.406 L
216.324 305.244 L
217.208 240.512 L
218.092 238.122 L
218.976 241.368 L
219.86 297.19 L
220.744 260.173 L
221.628 247.742 L
222.512 342.17 L
223.396 270.111 L
224.28 312.368 L
225.164 310.76 L
226.048 314.741 L
226.932 302.625 L
227.816 304.516 L
228.7 253.523 L
229.584 264.63 L
230.468 285.014 L
231.352 288.54 L
232.236 302.924 L
233.12 295.284 L
234.004 221.25 L
234.888 275.118 L
235.772 264.933 L
236.656 233.829 L
237.54 208.634 L
238.424 297.645 L
239.308 279.721 L
240.192 325.755 L
241.076 267.722 L
241.96 247.167 L
242.844 287.142 L
243.728 286.287 L
244.612 237.488 L
245.496 217.29 L
246.38 278.141 L
247.264 305.313 L
248.148 269.044 L
249.032 254.262 L
249.916 261.937 L
250.8 349.575 L
S
GR
GS
[0.75 0 0 0.75 0 0.5] CT
0 0.447 0.741 RC
1 LJ
0.667 LW
N
249.916 261.937 M
250.8 349.575 L
251.684 294.61 L
252.568 298.714 L
253.452 227.014 L
254.336 257.621 L
255.22 286.937 L
256.104 315.024 L
256.988 232.829 L
257.872 275.523 L
258.756 293.251 L
259.64 241.611 L
260.524 245.728 L
261.408 325.283 L
262.292 282.711 L
263.176 281.332 L
264.06 310.69 L
264.944 240.034 L
265.828 254.341 L
266.712 315.917 L
267.596 258.695 L
268.48 265.452 L
269.364 240.424 L
270.248 334.082 L
271.132 310.787 L
272.016 281.706 L
272.9 295.477 L
273.784 274.615 L
274.668 268.161 L
275.552 217.469 L
276.436 266.874 L
277.32 276.815 L
278.204 297.816 L
279.088 310.22 L
279.972 251.771 L
280.856 295.436 L
281.74 307.82 L
282.624 262.216 L
283.508 272.717 L
284.392 285.969 L
285.276 278.432 L
286.16 291.455 L
287.044 267.596 L
287.928 287.94 L
288.812 221.867 L
289.696 265.512 L
290.58 320.89 L
291.464 314.398 L
292.348 297.624 L
293.232 258.919 L
294.116 277.549 L
295 253.651 L
S
GR
GS
[0.75 0 0 0.75 0 0.5] CT
0 0.447 0.741 RC
1 LJ
0.667 LW
N
294.116 277.549 M
295 253.651 L
295.884 273.923 L
296.768 255.735 L
297.652 258.005 L
298.536 261.943 L
299.42 309.494 L
300.304 247.941 L
301.188 241.524 L
302.072 236.601 L
302.956 288.928 L
303.84 327.135 L
304.724 303.667 L
305.608 301.837 L
306.492 305.71 L
307.376 300.364 L
308.26 252.423 L
309.144 259.405 L
310.028 266.217 L
310.912 307.641 L
311.796 278.795 L
312.68 250.38 L
313.564 260.222 L
314.448 248.819 L
315.332 231.624 L
316.216 291.385 L
317.1 255.249 L
317.984 281.285 L
318.868 302.15 L
319.752 279.205 L
320.636 301.313 L
321.52 292.484 L
322.404 312.32 L
323.288 250.798 L
324.172 256.253 L
325.056 210.906 L
325.94 287.667 L
326.824 285.366 L
327.708 240.074 L
328.592 265.523 L
329.476 313.254 L
330.36 264.256 L
331.244 218.468 L
332.128 258.78 L
333.012 159.202 L
333.896 271.687 L
334.78 284.5 L
335.664 254.296 L
336.548 243.527 L
337.432 283.342 L
338.316 211.146 L
339.2 242.646 L
S
GR
GS
[0.75 0 0 0.75 0 0.5] CT
0 0.447 0.741 RC
1 LJ
0.667 LW
N
338.316 211.146 M
339.2 242.646 L
340.084 285.491 L
340.968 273.84 L
341.852 286.47 L
342.736 297.077 L
343.62 272.675 L
344.504 243.22 L
345.388 194.51 L
346.272 265.556 L
347.156 332.49 L
348.04 230.587 L
348.924 311.863 L
349.808 252.297 L
350.692 258.385 L
351.576 306.595 L
352.46 298.478 L
353.344 286.413 L
354.228 294.661 L
355.112 267.434 L
355.996 277.095 L
356.88 305.599 L
357.764 305.309 L
358.648 249.372 L
359.532 302.207 L
360.416 241.85 L
361.3 298.872 L
362.184 310.513 L
363.068 301.285 L
363.952 222.903 L
364.836 264.831 L
365.72 283.509 L
366.604 270.242 L
367.488 293.242 L
368.372 236.93 L
369.256 296.03 L
370.14 296.558 L
371.024 223.498 L
371.908 283.815 L
372.792 314.289 L
373.676 323.411 L
374.56 270.883 L
375.444 249.36 L
376.328 249.359 L
377.212 203.976 L
378.096 309.845 L
378.98 293.376 L
379.864 337.289 L
380.748 275.426 L
381.632 266.32 L
382.516 321.115 L
383.4 256.998 L
S
GR
GS
[0.75 0 0 0.75 0 0.5] CT
0 0.447 0.741 RC
1 LJ
0.667 LW
N
382.516 321.115 M
383.4 256.998 L
384.284 307.505 L
385.168 282.768 L
386.052 249.784 L
386.936 294.42 L
387.82 269.923 L
388.704 274.342 L
389.588 249.018 L
390.472 291.539 L
391.356 344.379 L
392.24 211.609 L
393.124 284.089 L
394.008 260.249 L
394.892 269.534 L
395.776 306.295 L
396.66 299.46 L
397.544 299.671 L
398.428 334.664 L
399.312 306.802 L
400.196 312.72 L
401.08 301.634 L
401.964 309.887 L
402.848 226.686 L
403.732 282.724 L
404.616 184.084 L
405.5 287.692 L
406.384 243.224 L
407.268 289.008 L
408.152 299.057 L
409.036 293.025 L
409.92 291.937 L
410.804 260.312 L
411.688 245.493 L
412.572 294.111 L
413.456 273.082 L
414.34 245.7 L
415.224 299.456 L
416.108 290.215 L
416.992 257.078 L
417.876 231.763 L
418.76 271.195 L
419.644 277.437 L
420.528 306.472 L
421.412 286.655 L
422.296 305.465 L
423.18 280.757 L
424.064 258.938 L
424.948 283.707 L
425.832 342.219 L
426.716 286.906 L
427.6 283.397 L
S
GR
GS
[0.75 0 0 0.75 0 0.5] CT
0 0.447 0.741 RC
1 LJ
0.667 LW
N
426.716 286.906 M
427.6 283.397 L
428.484 300.412 L
429.368 248.596 L
430.252 290.373 L
431.136 287.031 L
432.02 241.088 L
432.904 318.223 L
433.788 268.521 L
434.672 282.761 L
435.556 311.804 L
436.44 257.344 L
437.324 284.161 L
438.208 279.544 L
439.092 341.708 L
439.976 351.221 L
440.86 312.129 L
441.744 292.481 L
442.628 277.004 L
443.512 298.484 L
444.396 299.042 L
445.28 309.02 L
446.164 289.075 L
447.048 269.366 L
447.932 285.628 L
448.816 256.71 L
449.7 332.488 L
450.584 225.403 L
451.468 234.46 L
452.352 253.794 L
453.236 303.669 L
454.12 274.915 L
455.004 306.961 L
455.888 238.437 L
456.772 291.028 L
457.656 262.312 L
458.54 315.084 L
459.424 290.434 L
460.308 291.493 L
461.192 267.055 L
462.076 294.354 L
462.96 248.614 L
463.844 242.591 L
464.728 300.981 L
465.612 290.953 L
466.496 286.22 L
467.38 333.382 L
468.264 286.888 L
469.148 247.993 L
470.032 244.709 L
470.916 282.504 L
471.8 244.557 L
S
GR
GS
[0.75 0 0 0.75 0 0.5] CT
0 0.447 0.741 RC
1 LJ
0.667 LW
N
470.916 282.504 M
471.8 244.557 L
472.684 319.727 L
473.568 312.31 L
474.452 254.971 L
475.336 271.238 L
476.22 283.564 L
477.104 335.059 L
477.988 311.816 L
478.872 232.948 L
479.756 298.694 L
480.64 281.766 L
481.524 259.385 L
482.408 260.917 L
483.292 250.657 L
484.176 273.44 L
485.06 270.063 L
485.944 294.323 L
486.828 260.459 L
487.712 294.582 L
488.596 302.041 L
489.48 257.981 L
490.364 236.614 L
491.248 321.426 L
492.132 252.66 L
493.016 280.792 L
493.9 274.22 L
494.784 269.498 L
495.668 281.847 L
496.552 304.838 L
497.436 252.044 L
498.32 244.119 L
499.204 249.446 L
500.088 288.54 L
500.972 265.392 L
501.856 330.917 L
502.74 306.214 L
503.624 262.972 L
504.508 232.81 L
505.392 272.106 L
506.276 308.053 L
507.16 310.24 L
508.044 285.382 L
508.928 240.031 L
509.812 328.165 L
510.696 269.709 L
511.58 301.419 L
512.464 283.371 L
513.348 240.536 L
514.232 275.204 L
515.116 356.465 L
516 256.603 L
S
GR
GS
[0.75 0 0 0.75 0 0.5] CT
0 0.447 0.741 RC
1 LJ
0.667 LW
N
515.116 356.465 M
516 256.603 L
S
GR
%%Trailer
%%Pages: 1
%%EOF
